{
  "type": "service_account",
  "project_id": "schoerlianalytics",
  "private_key_id": "23fcdec1a6481fe9117bc8632209069be6eb3113",
  "private_key": "-----BEGIN PRIVATE KEY-----\nMIIEvQIBADANBgkqhkiG9w0BAQEFAASCBKcwggSjAgEAAoIBAQDD4HTYyyQrGV/p\nEddYKHFMnwMkmVA2bL9UrhRj0DbnYDyz/v9uX0JtKB9PH+xbKW+U9Vv9PRG0Jd2Z\njyi8uHDU8hM4QsF1at+ivMZPe/Aoueh8l/4B4NYJXLn13QiQpBKtw7QOx9/hb5ON\n0A7ZhgezAb3zQWr3ZOEAYfnOKuOaUcYYw8KEqenqhxJqVARm7VnfXeA5Jorb+/PI\n389mAkD4Ld38EofEQkwgA4zprRiy6CCpfGsaLMQfMEjOMRhnqcDH1c1mBfEqQf7I\njto6rxr3NiUEQ+OiYBoG2cGw5R+gpnGUwfjdlxb/Kf3Zi5dD5LkUV6AQ5zSh8nI6\nLCyvZ16ZAgMBAAECggEAEHRvLHUoRSydB4XVqtS+69ph17W/bMsG6bS0BsyLiDVn\n9BEEYT/EY0ofEzUR1HivJHrWLvht383ch1Vk7TGrXOA3KB9HhDclsVSdbjjxrGIt\nuyXDk2HRaTjucE6QtSHrZciOfD1jO9t1MFEdpj1hsTKAxAonU8AYPMF+TEkDFMgL\nGBJijWkEdt2Hy+xQetQ8gbhUh26zL5d2+0RYx/Fsd1ynEzRuowCEW/a+Z3t2H6h1\nu3PDb7pK+sOOrj9JWKKinWlSRpAzHRcAF5OmsHag4ZeISh/vmntQsY/TESQcyeQb\noJGMZhRRPGah3KDp4Oq19ZKIrz6B3Doatw7vfix8twKBgQDyUwShxmk+JSOo9gXK\nhqkWJbGIvQWkPMlEprW70tU1XS0z507CyzYI5HBgPINK6TBedn9PAx25/dFJOhNP\nujp9xTaDjmhlE+w209hZTfmFpb4z6LvQ4ycF4iSTeu1ajOBMbU0oJtibR+fxS7y/\nqU7/HJeS69icGek4rURLrgogWwKBgQDO7mM9fTKEk+/awE2ObX9HhFizqCcCjd7A\nBmmXgJEdhH3XrhJKT8jYeNUdvV/anbnVOKlqsmyh4IbN1XLrTLHEUlj/H7Cgdqz1\nSe8mdKJc+XkoA/gl+mWL+hcxvw/KMSSVausKV+Y/mxX0sBaRBry+rJuzUa/lVjbL\n5fevqjPvGwKBgDXDDWgG6RqMitjVnHtOXP0456Z6qWHCyrScd/1vzTXFsl2tl9/H\nzfkzFWuEgWyBR+XtTFlvS40ULvacF+S8YHW+51VQpwCl5uZTIdDOZ+mq2AQUQncZ\nrnKztYGy6C4Ky0iph1C9LZll3qO+NeYf3hLjeQ1znd8kMIYOivRvbHe5AoGAROb/\nyHOtpJOV5CLwMCKppOiemIO/KYyPxSTdeALpTwjU1kIx+OiEGgByBgsOpb6rKCJL\n1yk+HtCiUltmfo71CkfZNmoY5/VcNfi+VvGzNn4jJ33a3Np5gZhurLPP0CV45v/I\n75LBKiC7uNQBT50Mr/jNh3IFvbltWYtjY+yqik0CgYEAjzh9kG7IftF8HXKM0P1d\no4E2SFdC4mxVbG30fNGSc2F0GamSKogocE5MJx9UIDN1wDJn1+9zrRgaVYqL0Rep\nJL9CQm7l4H7nkmTL5I4STU+zNs5EV1XyfqIq1Qw++ahgkNKbiLknJ3LKvlW6gmq6\nefs6TYylH3Gj30AxkCggLBY=\n-----END PRIVATE KEY-----\n",
  "client_email": "sscheorli-analytics-api@schoerlianalytics.iam.gserviceaccount.com",
  "client_id": "110718678944830461344",
  "auth_uri": "https://accounts.google.com/o/oauth2/auth",
  "token_uri": "https://oauth2.googleapis.com/token",
  "auth_provider_x509_cert_url": "https://www.googleapis.com/oauth2/v1/certs",
  "client_x509_cert_url": "https://www.googleapis.com/robot/v1/metadata/x509/scheorli-analytics-api%40schoerlianalytics.iam.gserviceaccount.com"
}
